Homework 6
…
Exercise 7

What is the roc_auc of your best-performing random
forest model on the folds? Hint: Use collect_metrics()
and arrange().

Answer: 0.7389160 is my best-performing random forest model.

collect_metrics(bagging_tune_res)

## # A tibble: 512 x 9
##     mtry trees min_n .metric .estimator  mean     n std_err .config             
##    <int> <int> <int> <chr>   <chr>      <dbl> <int>   <dbl> <chr>               
##  1     1     1     1 roc_auc hand_till  0.548     5 0.0127  Preprocessor1_Model~
##  2     2     1     1 roc_auc hand_till  0.578     5 0.0143  Preprocessor1_Model~
##  3     3     1     1 roc_auc hand_till  0.590     5 0.00552 Preprocessor1_Model~
##  4     4     1     1 roc_auc hand_till  0.578     5 0.0156  Preprocessor1_Model~
##  5     5     1     1 roc_auc hand_till  0.558     5 0.0192  Preprocessor1_Model~
##  6     6     1     1 roc_auc hand_till  0.567     5 0.0261  Preprocessor1_Model~
##  7     7     1     1 roc_auc hand_till  0.564     5 0.0151  Preprocessor1_Model~
##  8     8     1     1 roc_auc hand_till  0.571     5 0.0118  Preprocessor1_Model~
##  9     1     2     1 roc_auc hand_till  0.619     5 0.0207  Preprocessor1_Model~
## 10     2     2     1 roc_auc hand_till  0.600     5 0.0155  Preprocessor1_Model~
## # ... with 502 more rows
…
